signature,file,startline,startcol,endline,endcol,properties
Landroid/provider/MediaStore$Files$FileColumns;->STORAGE_ID:Ljava/lang/String;,packages/providers/MediaProvider/apex/framework/java/android/provider/MediaStore.java,2094,13,2094,96,maxTargetSdk=30&trackingBug=170729553L
Landroid/provider/MediaStore$Files$FileColumns;->FORMAT:Ljava/lang/String;,packages/providers/MediaProvider/apex/framework/java/android/provider/MediaStore.java,2103,13,2103,33,
Landroid/provider/MediaStore$Files;->getMtpObjectsUri(Ljava/lang/String;)Landroid/net/Uri;,packages/providers/MediaProvider/apex/framework/java/android/provider/MediaStore.java,2056,9,2056,29,
Landroid/provider/MediaStore$Files;->getMtpObjectsUri(Ljava/lang/String;J)Landroid/net/Uri;,packages/providers/MediaProvider/apex/framework/java/android/provider/MediaStore.java,2062,9,2062,29,
Landroid/provider/MediaStore$Files;->getMtpReferencesUri(Ljava/lang/String;J)Landroid/net/Uri;,packages/providers/MediaProvider/apex/framework/java/android/provider/MediaStore.java,2068,9,2068,29,
