signature,file,startline,startcol,endline,endcol,properties
Landroid/app/usage/NetworkStatsManager;->setPollForce(Z)V,packages/modules/Connectivity/framework-t/src/android/app/usage/NetworkStatsManager.java,203,5,203,88,maxTargetSdk=30&trackingBug=170729553L
Landroid/net/ConnectivityManager$PacketKeepalive;->stop()V,packages/modules/Connectivity/framework/src/android/net/ConnectivityManager.java,2337,9,2337,92,maxTargetSdk=30&trackingBug=170729553L
Landroid/net/ConnectivityManager$PacketKeepaliveCallback;-><init>()V,packages/modules/Connectivity/framework/src/android/net/ConnectivityManager.java,2261,9,2261,92,maxTargetSdk=30&trackingBug=170729553L
Landroid/net/ConnectivityManager$PacketKeepaliveCallback;->onStarted()V,packages/modules/Connectivity/framework/src/android/net/ConnectivityManager.java,2265,9,2265,92,maxTargetSdk=30&trackingBug=170729553L
Landroid/net/ConnectivityManager$PacketKeepaliveCallback;->onStopped()V,packages/modules/Connectivity/framework/src/android/net/ConnectivityManager.java,2270,9,2270,92,maxTargetSdk=30&trackingBug=170729553L
Landroid/net/ConnectivityManager$PacketKeepaliveCallback;->onError(I)V,packages/modules/Connectivity/framework/src/android/net/ConnectivityManager.java,2275,9,2275,92,maxTargetSdk=30&trackingBug=170729553L
Landroid/net/ConnectivityManager;->INET_CONDITION_ACTION:Ljava/lang/String;,packages/modules/Connectivity/framework/src/android/net/ConnectivityManager.java,371,5,371,25,
Landroid/net/ConnectivityManager;->ACTION_TETHER_STATE_CHANGED:Ljava/lang/String;,packages/modules/Connectivity/framework/src/android/net/ConnectivityManager.java,386,5,386,88,maxTargetSdk=30&trackingBug=170729553L
Landroid/net/ConnectivityManager;->EXTRA_AVAILABLE_TETHER:Ljava/lang/String;,packages/modules/Connectivity/framework/src/android/net/ConnectivityManager.java,395,5,395,88,maxTargetSdk=30&trackingBug=170729553L
Landroid/net/ConnectivityManager;->EXTRA_ACTIVE_TETHER:Ljava/lang/String;,packages/modules/Connectivity/framework/src/android/net/ConnectivityManager.java,410,5,410,88,maxTargetSdk=30&trackingBug=170729553L
Landroid/net/ConnectivityManager;->EXTRA_ERRORED_TETHER:Ljava/lang/String;,packages/modules/Connectivity/framework/src/android/net/ConnectivityManager.java,419,5,419,88,maxTargetSdk=30&trackingBug=170729553L
Landroid/net/ConnectivityManager;->TYPE_MOBILE_FOTA:I,packages/modules/Connectivity/framework/src/android/net/ConnectivityManager.java,683,5,683,88,maxTargetSdk=28&trackingBug=130143562L
Landroid/net/ConnectivityManager;->TYPE_MOBILE_IMS:I,packages/modules/Connectivity/framework/src/android/net/ConnectivityManager.java,692,5,692,25,
Landroid/net/ConnectivityManager;->TYPE_MOBILE_CBS:I,packages/modules/Connectivity/framework/src/android/net/ConnectivityManager.java,701,5,701,88,maxTargetSdk=28&trackingBug=130143562L
Landroid/net/ConnectivityManager;->TYPE_MOBILE_IA:I,packages/modules/Connectivity/framework/src/android/net/ConnectivityManager.java,720,5,720,25,
Landroid/net/ConnectivityManager;->TYPE_MOBILE_EMERGENCY:I,packages/modules/Connectivity/framework/src/android/net/ConnectivityManager.java,730,5,730,88,maxTargetSdk=28&trackingBug=130143562L
Landroid/net/ConnectivityManager;->mService:Landroid/net/IConnectivityManager;,packages/modules/Connectivity/framework/src/android/net/ConnectivityManager.java,967,5,967,88,maxTargetSdk=28&trackingBug=130143562L
Landroid/net/ConnectivityManager;->getNetworkTypeName(I)Ljava/lang/String;,packages/modules/Connectivity/framework/src/android/net/ConnectivityManager.java,1164,5,1164,88,maxTargetSdk=30&trackingBug=170729553L
Landroid/net/ConnectivityManager;->isNetworkTypeMobile(I)Z,packages/modules/Connectivity/framework/src/android/net/ConnectivityManager.java,1233,5,1233,88,maxTargetSdk=28&trackingBug=130143562L
Landroid/net/ConnectivityManager;->getActiveNetworkInfoForUid(I)Landroid/net/NetworkInfo;,packages/modules/Connectivity/framework/src/android/net/ConnectivityManager.java,1605,5,1605,88,maxTargetSdk=30&trackingBug=170729553L
Landroid/net/ConnectivityManager;->getNetworkForType(I)Landroid/net/Network;,packages/modules/Connectivity/framework/src/android/net/ConnectivityManager.java,1724,5,1724,25,
Landroid/net/ConnectivityManager;->getDefaultNetworkCapabilitiesForUser(I)[Landroid/net/NetworkCapabilities;,packages/modules/Connectivity/framework/src/android/net/ConnectivityManager.java,1761,5,1761,25,
Landroid/net/ConnectivityManager;->getActiveLinkProperties()Landroid/net/LinkProperties;,packages/modules/Connectivity/framework/src/android/net/ConnectivityManager.java,1785,5,1785,88,maxTargetSdk=28&trackingBug=109783091L
Landroid/net/ConnectivityManager;->getLinkProperties(I)Landroid/net/LinkProperties;,packages/modules/Connectivity/framework/src/android/net/ConnectivityManager.java,1810,5,1810,88,maxTargetSdk=28&trackingBug=130143562L
Landroid/net/ConnectivityManager;->networkCapabilitiesForFeature(ILjava/lang/String;)Landroid/net/NetworkCapabilities;,packages/modules/Connectivity/framework/src/android/net/ConnectivityManager.java,2047,5,2047,88,maxTargetSdk=30&trackingBug=170729553L
Landroid/net/ConnectivityManager;->sLegacyRequests:Ljava/util/HashMap;,packages/modules/Connectivity/framework/src/android/net/ConnectivityManager.java,2133,5,2133,88,maxTargetSdk=30&trackingBug=170729553L
Landroid/net/ConnectivityManager;->requestNetworkForFeatureLocked(Landroid/net/NetworkCapabilities;)Landroid/net/NetworkRequest;,packages/modules/Connectivity/framework/src/android/net/ConnectivityManager.java,2162,5,2162,88,maxTargetSdk=30&trackingBug=170729553L
Landroid/net/ConnectivityManager;->removeRequestForFeature(Landroid/net/NetworkCapabilities;)Z,packages/modules/Connectivity/framework/src/android/net/ConnectivityManager.java,2192,5,2192,88,maxTargetSdk=30&trackingBug=170729553L
Landroid/net/ConnectivityManager;->startNattKeepalive(Landroid/net/Network;ILandroid/net/ConnectivityManager$PacketKeepaliveCallback;Ljava/net/InetAddress;ILjava/net/InetAddress;)Landroid/net/ConnectivityManager$PacketKeepalive;,packages/modules/Connectivity/framework/src/android/net/ConnectivityManager.java,2438,5,2438,88,maxTargetSdk=30&trackingBug=170729553L
Landroid/net/ConnectivityManager;->requestRouteToHostAddress(ILjava/net/InetAddress;)Z,packages/modules/Connectivity/framework/src/android/net/ConnectivityManager.java,2638,5,2638,25,
Landroid/net/ConnectivityManager;->setBackgroundDataSetting(Z)V,packages/modules/Connectivity/framework/src/android/net/ConnectivityManager.java,2692,5,2692,25,
Landroid/net/ConnectivityManager;->getMobileDataEnabled()Z,packages/modules/Connectivity/framework/src/android/net/ConnectivityManager.java,2702,5,2702,25,
Landroid/net/ConnectivityManager;->from(Landroid/content/Context;)Landroid/net/ConnectivityManager;,packages/modules/Connectivity/framework/src/android/net/ConnectivityManager.java,2829,5,2829,25,
Landroid/net/ConnectivityManager;->getInstance()Landroid/net/ConnectivityManager;,packages/modules/Connectivity/framework/src/android/net/ConnectivityManager.java,2874,5,2874,25,
Landroid/net/ConnectivityManager;->getTetherableIfaces()[Ljava/lang/String;,packages/modules/Connectivity/framework/src/android/net/ConnectivityManager.java,2892,5,2892,25,
Landroid/net/ConnectivityManager;->getTetheredIfaces()[Ljava/lang/String;,packages/modules/Connectivity/framework/src/android/net/ConnectivityManager.java,2907,5,2907,25,
Landroid/net/ConnectivityManager;->getTetheringErroredIfaces()[Ljava/lang/String;,packages/modules/Connectivity/framework/src/android/net/ConnectivityManager.java,2928,5,2928,25,
Landroid/net/ConnectivityManager;->tether(Ljava/lang/String;)I,packages/modules/Connectivity/framework/src/android/net/ConnectivityManager.java,2972,5,2972,88,maxTargetSdk=30&trackingBug=170729553L
Landroid/net/ConnectivityManager;->untether(Ljava/lang/String;)I,packages/modules/Connectivity/framework/src/android/net/ConnectivityManager.java,2996,5,2996,25,
Landroid/net/ConnectivityManager;->getTetherableUsbRegexs()[Ljava/lang/String;,packages/modules/Connectivity/framework/src/android/net/ConnectivityManager.java,3234,5,3234,25,
Landroid/net/ConnectivityManager;->getTetherableWifiRegexs()[Ljava/lang/String;,packages/modules/Connectivity/framework/src/android/net/ConnectivityManager.java,3252,5,3252,25,
Landroid/net/ConnectivityManager;->getTetherableBluetoothRegexs()[Ljava/lang/String;,packages/modules/Connectivity/framework/src/android/net/ConnectivityManager.java,3271,5,3271,25,
Landroid/net/ConnectivityManager;->setUsbTethering(Z)I,packages/modules/Connectivity/framework/src/android/net/ConnectivityManager.java,3295,5,3295,25,
Landroid/net/ConnectivityManager;->getLastTetherError(Ljava/lang/String;)I,packages/modules/Connectivity/framework/src/android/net/ConnectivityManager.java,3411,5,3411,88,maxTargetSdk=30&trackingBug=170729553L
Landroid/net/ConnectivityManager;->isNetworkSupported(I)Z,packages/modules/Connectivity/framework/src/android/net/ConnectivityManager.java,3660,5,3660,88,maxTargetSdk=28&trackingBug=130143562L
Landroid/net/ConnectivityManager;->setProcessDefaultNetworkForHostResolution(Landroid/net/Network;)Z,packages/modules/Connectivity/framework/src/android/net/ConnectivityManager.java,5503,5,5503,88,maxTargetSdk=30&trackingBug=170729553L
Landroid/net/EthernetManager$Listener;->onAvailabilityChanged(Ljava/lang/String;Z)V,packages/modules/Connectivity/framework-t/src/android/net/EthernetManager.java,165,9,165,92,maxTargetSdk=30&trackingBug=170729553L
Landroid/net/EthernetManager;->getConfiguration(Ljava/lang/String;)Landroid/net/IpConfiguration;,packages/modules/Connectivity/framework-t/src/android/net/EthernetManager.java,192,5,192,88,maxTargetSdk=30&trackingBug=170729553L
Landroid/net/EthernetManager;->setConfiguration(Ljava/lang/String;Landroid/net/IpConfiguration;)V,packages/modules/Connectivity/framework-t/src/android/net/EthernetManager.java,205,5,205,88,maxTargetSdk=30&trackingBug=170729553L
Landroid/net/EthernetManager;->isAvailable()Z,packages/modules/Connectivity/framework-t/src/android/net/EthernetManager.java,218,5,218,88,maxTargetSdk=30&trackingBug=170729553L
Landroid/net/EthernetManager;->isAvailable(Ljava/lang/String;)Z,packages/modules/Connectivity/framework-t/src/android/net/EthernetManager.java,229,5,229,88,maxTargetSdk=30&trackingBug=170729553L
Landroid/net/EthernetManager;->addListener(Landroid/net/EthernetManager$Listener;)V,packages/modules/Connectivity/framework-t/src/android/net/EthernetManager.java,246,5,246,88,maxTargetSdk=30&trackingBug=170729553L
Landroid/net/EthernetManager;->addListener(Landroid/net/EthernetManager$Listener;Ljava/util/concurrent/Executor;)V,packages/modules/Connectivity/framework-t/src/android/net/EthernetManager.java,260,5,260,88,maxTargetSdk=30&trackingBug=170729553L
Landroid/net/EthernetManager;->getAvailableInterfaces()[Ljava/lang/String;,packages/modules/Connectivity/framework-t/src/android/net/EthernetManager.java,319,5,319,88,maxTargetSdk=30&trackingBug=170729553L
Landroid/net/EthernetManager;->removeListener(Landroid/net/EthernetManager$Listener;)V,packages/modules/Connectivity/framework-t/src/android/net/EthernetManager.java,359,5,359,88,maxTargetSdk=30&trackingBug=170729553L
Landroid/net/IConnectivityManager;->getActiveNetworkInfo()Landroid/net/NetworkInfo;,packages/modules/Connectivity/framework/src/android/net/IConnectivityManager.aidl,61,1,61,25,
Landroid/net/IConnectivityManager;->getNetworkInfo(I)Landroid/net/NetworkInfo;,packages/modules/Connectivity/framework/src/android/net/IConnectivityManager.aidl,64,1,64,44,maxTargetSdk=28
Landroid/net/IConnectivityManager;->getAllNetworkInfo()[Landroid/net/NetworkInfo;,packages/modules/Connectivity/framework/src/android/net/IConnectivityManager.aidl,67,1,67,25,
Landroid/net/IConnectivityManager;->getActiveLinkProperties()Landroid/net/LinkProperties;,packages/modules/Connectivity/framework/src/android/net/IConnectivityManager.aidl,76,1,76,25,
Landroid/net/IConnectivityManager;->getAllNetworkState()[Landroid/net/NetworkState;,packages/modules/Connectivity/framework/src/android/net/IConnectivityManager.aidl,89,1,89,69,maxTargetSdk=30&trackingBug=170729553L
Landroid/net/IConnectivityManager;->getLastTetherError(Ljava/lang/String;)I,packages/modules/Connectivity/framework/src/android/net/IConnectivityManager.aidl,99,1,100,99,maxTargetSdk=29&publicAlternatives=%22Use+%7B%40code+TetheringManager%23getLastTetherError%7D+as+alternative%22
Landroid/net/IConnectivityManager;->getTetherableIfaces()[Ljava/lang/String;,packages/modules/Connectivity/framework/src/android/net/IConnectivityManager.aidl,103,1,104,100,maxTargetSdk=29&publicAlternatives=%22Use+%7B%40code+TetheringManager%23getTetherableIfaces%7D+as+alternative%22
Landroid/net/IConnectivityManager;->getTetheredIfaces()[Ljava/lang/String;,packages/modules/Connectivity/framework/src/android/net/IConnectivityManager.aidl,107,1,108,98,maxTargetSdk=29&publicAlternatives=%22Use+%7B%40code+TetheringManager%23getTetheredIfaces%7D+as+alternative%22
Landroid/net/IConnectivityManager;->getTetheringErroredIfaces()[Ljava/lang/String;,packages/modules/Connectivity/framework/src/android/net/IConnectivityManager.aidl,111,1,113,32,maxTargetSdk=29&publicAlternatives=%22Use+%7B%40code+TetheringManager%23getTetheringErroredIfaces%7D+as+Alternative%22
Landroid/net/IConnectivityManager;->getTetherableUsbRegexs()[Ljava/lang/String;,packages/modules/Connectivity/framework/src/android/net/IConnectivityManager.aidl,116,1,117,103,maxTargetSdk=29&publicAlternatives=%22Use+%7B%40code+TetheringManager%23getTetherableUsbRegexs%7D+as+alternative%22
Landroid/net/IConnectivityManager;->getTetherableWifiRegexs()[Ljava/lang/String;,packages/modules/Connectivity/framework/src/android/net/IConnectivityManager.aidl,120,1,121,104,maxTargetSdk=29&publicAlternatives=%22Use+%7B%40code+TetheringManager%23getTetherableWifiRegexs%7D+as+alternative%22
Landroid/net/IConnectivityManager;->reportInetCondition(II)V,packages/modules/Connectivity/framework/src/android/net/IConnectivityManager.aidl,124,1,124,44,maxTargetSdk=28
Landroid/net/INetworkStatsService;->openSession()Landroid/net/INetworkStatsSession;,packages/modules/Connectivity/framework-t/src/android/net/INetworkStatsService.aidl,37,1,37,25,
Landroid/net/INetworkStatsService;->openSessionForUsageStats(ILjava/lang/String;)Landroid/net/INetworkStatsSession;,packages/modules/Connectivity/framework-t/src/android/net/INetworkStatsService.aidl,46,1,46,69,maxTargetSdk=30&trackingBug=170729553L
Landroid/net/INetworkStatsService;->getDataLayerSnapshotForUid(I)Landroid/net/NetworkStats;,packages/modules/Connectivity/framework-t/src/android/net/INetworkStatsService.aidl,50,1,50,25,
Landroid/net/INetworkStatsService;->getMobileIfaces()[Ljava/lang/String;,packages/modules/Connectivity/framework-t/src/android/net/INetworkStatsService.aidl,57,1,57,25,
Landroid/net/INetworkStatsService;->forceUpdate()V,packages/modules/Connectivity/framework-t/src/android/net/INetworkStatsService.aidl,70,1,70,25,
Landroid/net/INetworkStatsSession;->getSummaryForNetwork(Landroid/net/NetworkTemplate;JJ)Landroid/net/NetworkStats;,packages/modules/Connectivity/framework-t/src/android/net/INetworkStatsSession.aidl,30,1,30,25,
Landroid/net/INetworkStatsSession;->getHistoryForNetwork(Landroid/net/NetworkTemplate;I)Landroid/net/NetworkStatsHistory;,packages/modules/Connectivity/framework-t/src/android/net/INetworkStatsSession.aidl,33,1,33,25,
Landroid/net/INetworkStatsSession;->getSummaryForAllUid(Landroid/net/NetworkTemplate;JJZ)Landroid/net/NetworkStats;,packages/modules/Connectivity/framework-t/src/android/net/INetworkStatsSession.aidl,52,1,52,25,
Landroid/net/INetworkStatsSession;->getHistoryForUid(Landroid/net/NetworkTemplate;IIII)Landroid/net/NetworkStatsHistory;,packages/modules/Connectivity/framework-t/src/android/net/INetworkStatsSession.aidl,59,1,59,25,
Landroid/net/INetworkStatsSession;->close()V,packages/modules/Connectivity/framework-t/src/android/net/INetworkStatsSession.aidl,67,1,67,25,
Landroid/net/IpConfiguration;->httpProxy:Landroid/net/ProxyInfo;,packages/modules/Connectivity/framework/src/android/net/IpConfiguration.java,84,5,84,25,
Landroid/net/IpConfiguration;-><init>(Landroid/net/IpConfiguration$IpAssignment;Landroid/net/IpConfiguration$ProxySettings;Landroid/net/StaticIpConfiguration;Landroid/net/ProxyInfo;)V,packages/modules/Connectivity/framework/src/android/net/IpConfiguration.java,106,5,106,88,maxTargetSdk=30&trackingBug=170729553L
Landroid/net/LinkAddress;->address:Ljava/net/InetAddress;,packages/modules/Connectivity/framework/src/android/net/LinkAddress.java,83,5,83,88,maxTargetSdk=28&trackingBug=115609023L
Landroid/net/LinkAddress;->prefixLength:I,packages/modules/Connectivity/framework/src/android/net/LinkAddress.java,89,5,89,88,maxTargetSdk=28&trackingBug=115609023L
Landroid/net/LinkAddress;->isIPv6()Z,packages/modules/Connectivity/framework/src/android/net/LinkAddress.java,170,5,170,63,maxTargetSdk=28
Landroid/net/LinkAddress;->getNetworkPrefixLength()I,packages/modules/Connectivity/framework/src/android/net/LinkAddress.java,410,5,410,25,
Landroid/net/LinkProperties;->mIfaceName:Ljava/lang/String;,packages/modules/Connectivity/framework/src/android/net/LinkProperties.java,61,5,61,88,maxTargetSdk=28&trackingBug=115609023L
Landroid/net/LinkProperties;->compareProvisioning(Landroid/net/LinkProperties;Landroid/net/LinkProperties;)Landroid/net/LinkProperties$ProvisioningChange;,packages/modules/Connectivity/framework/src/android/net/LinkProperties.java,121,5,121,88,maxTargetSdk=30&trackingBug=170729553L
Landroid/net/LinkProperties;->getAllAddresses()Ljava/util/List;,packages/modules/Connectivity/framework/src/android/net/LinkProperties.java,270,5,270,25,
Landroid/net/LinkProperties;->addStackedLink(Landroid/net/LinkProperties;)Z,packages/modules/Connectivity/framework/src/android/net/LinkProperties.java,853,5,853,25,
Landroid/net/LinkProperties;->getStackedLinks()Ljava/util/List;,packages/modules/Connectivity/framework/src/android/net/LinkProperties.java,881,5,881,88,maxTargetSdk=30&trackingBug=170729553L
Landroid/net/LinkProperties;->hasIPv4Address()Z,packages/modules/Connectivity/framework/src/android/net/LinkProperties.java,1053,5,1053,63,maxTargetSdk=28
Landroid/net/LinkProperties;->hasGlobalIPv6Address()Z,packages/modules/Connectivity/framework/src/android/net/LinkProperties.java,1108,5,1108,63,maxTargetSdk=28
Landroid/net/LinkProperties;->hasIPv4DefaultRoute()Z,packages/modules/Connectivity/framework/src/android/net/LinkProperties.java,1151,5,1151,63,maxTargetSdk=28
Landroid/net/LinkProperties;->hasIPv6DefaultRoute()Z,packages/modules/Connectivity/framework/src/android/net/LinkProperties.java,1179,5,1179,63,maxTargetSdk=28
Landroid/net/LinkProperties;->hasIPv4DnsServer()Z,packages/modules/Connectivity/framework/src/android/net/LinkProperties.java,1207,5,1207,63,maxTargetSdk=28
Landroid/net/LinkProperties;->hasIPv6DnsServer()Z,packages/modules/Connectivity/framework/src/android/net/LinkProperties.java,1235,5,1235,63,maxTargetSdk=28
Landroid/net/LinkProperties;->isIPv6Provisioned()Z,packages/modules/Connectivity/framework/src/android/net/LinkProperties.java,1305,5,1305,63,maxTargetSdk=28
Landroid/net/LinkProperties;->isIdenticalInterfaceName(Landroid/net/LinkProperties;)Z,packages/modules/Connectivity/framework/src/android/net/LinkProperties.java,1383,5,1383,25,
Landroid/net/LinkProperties;->isIdenticalAddresses(Landroid/net/LinkProperties;)Z,packages/modules/Connectivity/framework/src/android/net/LinkProperties.java,1406,5,1406,25,
Landroid/net/LinkProperties;->isIdenticalDnses(Landroid/net/LinkProperties;)Z,packages/modules/Connectivity/framework/src/android/net/LinkProperties.java,1418,5,1418,25,
Landroid/net/LinkProperties;->isIdenticalRoutes(Landroid/net/LinkProperties;)Z,packages/modules/Connectivity/framework/src/android/net/LinkProperties.java,1475,5,1475,25,
Landroid/net/LinkProperties;->isIdenticalHttpProxy(Landroid/net/LinkProperties;)Z,packages/modules/Connectivity/framework/src/android/net/LinkProperties.java,1487,5,1487,88,maxTargetSdk=28&trackingBug=115609023L
Landroid/net/LinkProperties;->isIdenticalStackedLinks(Landroid/net/LinkProperties;)Z,packages/modules/Connectivity/framework/src/android/net/LinkProperties.java,1499,5,1499,88,maxTargetSdk=30&trackingBug=170729553L
Landroid/net/MacAddress;->ALL_ZEROS_ADDRESS:Landroid/net/MacAddress;,packages/modules/Connectivity/framework/src/android/net/MacAddress.java,62,5,62,88,maxTargetSdk=30&trackingBug=170729553L
Landroid/net/Network;->netId:I,packages/modules/Connectivity/framework/src/android/net/Network.java,69,5,69,25,
Landroid/net/Network;-><init>(I)V,packages/modules/Connectivity/framework/src/android/net/Network.java,115,5,115,88,maxTargetSdk=30&trackingBug=170729553L
Landroid/net/NetworkAgent;->sendNetworkInfo(Landroid/net/NetworkInfo;)V,packages/modules/Connectivity/framework/src/android/net/NetworkAgent.java,1124,5,1124,88,maxTargetSdk=28&trackingBug=115609023L
Landroid/net/NetworkCapabilities;->mNetworkCapabilities:J,packages/modules/Connectivity/framework/src/android/net/NetworkCapabilities.java,413,5,413,88,maxTargetSdk=30&trackingBug=170729553L
Landroid/net/NetworkCapabilities;->mSignalStrength:I,packages/modules/Connectivity/framework/src/android/net/NetworkCapabilities.java,1848,5,1848,63,maxTargetSdk=28
Landroid/net/NetworkCapabilities;->hasSignalStrength()Z,packages/modules/Connectivity/framework/src/android/net/NetworkCapabilities.java,1874,5,1874,88,maxTargetSdk=30&trackingBug=170729553L
Landroid/net/NetworkCapabilities;->transportNamesOf([I)Ljava/lang/String;,packages/modules/Connectivity/framework/src/android/net/NetworkCapabilities.java,2600,5,2600,88,maxTargetSdk=30&trackingBug=170729553L
Landroid/net/NetworkInfo;-><init>(Landroid/net/NetworkInfo;)V,packages/modules/Connectivity/framework/src/android/net/NetworkInfo.java,182,5,182,25,
Landroid/net/NetworkInfo;->setSubtype(ILjava/lang/String;)V,packages/modules/Connectivity/framework/src/android/net/NetworkInfo.java,253,5,253,25,
Landroid/net/NetworkInfo;->setIsAvailable(Z)V,packages/modules/Connectivity/framework/src/android/net/NetworkInfo.java,390,5,390,25,
Landroid/net/NetworkInfo;->setFailover(Z)V,packages/modules/Connectivity/framework/src/android/net/NetworkInfo.java,421,5,421,25,
Landroid/net/NetworkInfo;->setRoaming(Z)V,packages/modules/Connectivity/framework/src/android/net/NetworkInfo.java,452,5,452,25,
Landroid/net/NetworkRequest;->networkCapabilities:Landroid/net/NetworkCapabilities;,packages/modules/Connectivity/framework/src/android/net/NetworkRequest.java,171,5,171,88,maxTargetSdk=30&trackingBug=170729553L
Landroid/net/NetworkRequest;->requestId:I,packages/modules/Connectivity/framework/src/android/net/NetworkRequest.java,180,5,180,88,maxTargetSdk=30&trackingBug=170729553L
Landroid/net/NetworkRequest;->legacyType:I,packages/modules/Connectivity/framework/src/android/net/NetworkRequest.java,188,5,188,88,maxTargetSdk=28&trackingBug=115609023L
Landroid/net/NetworkState;->network:Landroid/net/Network;,packages/modules/Connectivity/framework/src/android/net/NetworkState.java,41,5,41,88,maxTargetSdk=28&trackingBug=115609023L
Landroid/net/NetworkState;-><init>(Landroid/os/Parcel;)V,packages/modules/Connectivity/framework/src/android/net/NetworkState.java,92,5,92,25,
Landroid/net/NetworkState;->CREATOR:Landroid/os/Parcelable$Creator;,packages/modules/Connectivity/framework/src/android/net/NetworkState.java,117,5,117,25,
Landroid/net/NetworkStats$Entry;->iface:Ljava/lang/String;,packages/modules/Connectivity/framework-t/src/android/net/NetworkStats.java,256,9,256,92,maxTargetSdk=30&trackingBug=170729553L
Landroid/net/NetworkStats$Entry;->uid:I,packages/modules/Connectivity/framework-t/src/android/net/NetworkStats.java,259,9,259,29,
Landroid/net/NetworkStats$Entry;->set:I,packages/modules/Connectivity/framework-t/src/android/net/NetworkStats.java,262,9,262,29,
Landroid/net/NetworkStats$Entry;->tag:I,packages/modules/Connectivity/framework-t/src/android/net/NetworkStats.java,265,9,265,92,maxTargetSdk=30&trackingBug=170729553L
Landroid/net/NetworkStats$Entry;->rxBytes:J,packages/modules/Connectivity/framework-t/src/android/net/NetworkStats.java,289,9,289,29,
Landroid/net/NetworkStats$Entry;->rxPackets:J,packages/modules/Connectivity/framework-t/src/android/net/NetworkStats.java,292,9,292,92,maxTargetSdk=30&trackingBug=170729553L
Landroid/net/NetworkStats$Entry;->txBytes:J,packages/modules/Connectivity/framework-t/src/android/net/NetworkStats.java,295,9,295,29,
Landroid/net/NetworkStats$Entry;->txPackets:J,packages/modules/Connectivity/framework-t/src/android/net/NetworkStats.java,298,9,298,92,maxTargetSdk=30&trackingBug=170729553L
Landroid/net/NetworkStats$Entry;->operations:J,packages/modules/Connectivity/framework-t/src/android/net/NetworkStats.java,301,9,301,92,maxTargetSdk=30&trackingBug=170729553L
Landroid/net/NetworkStats$Entry;-><init>()V,packages/modules/Connectivity/framework-t/src/android/net/NetworkStats.java,305,9,305,92,maxTargetSdk=30&trackingBug=170729553L
Landroid/net/NetworkStats;->size:I,packages/modules/Connectivity/framework-t/src/android/net/NetworkStats.java,217,5,217,88,maxTargetSdk=30&trackingBug=170729553L
Landroid/net/NetworkStats;->capacity:I,packages/modules/Connectivity/framework-t/src/android/net/NetworkStats.java,219,5,219,88,maxTargetSdk=30&trackingBug=170729553L
Landroid/net/NetworkStats;->iface:[Ljava/lang/String;,packages/modules/Connectivity/framework-t/src/android/net/NetworkStats.java,221,5,221,88,maxTargetSdk=30&trackingBug=170729553L
Landroid/net/NetworkStats;->uid:[I,packages/modules/Connectivity/framework-t/src/android/net/NetworkStats.java,223,5,223,25,
Landroid/net/NetworkStats;->set:[I,packages/modules/Connectivity/framework-t/src/android/net/NetworkStats.java,225,5,225,25,
Landroid/net/NetworkStats;->tag:[I,packages/modules/Connectivity/framework-t/src/android/net/NetworkStats.java,227,5,227,25,
Landroid/net/NetworkStats;->metered:[I,packages/modules/Connectivity/framework-t/src/android/net/NetworkStats.java,229,5,229,88,maxTargetSdk=30&trackingBug=170729553L
Landroid/net/NetworkStats;->roaming:[I,packages/modules/Connectivity/framework-t/src/android/net/NetworkStats.java,231,5,231,88,maxTargetSdk=30&trackingBug=170729553L
Landroid/net/NetworkStats;->defaultNetwork:[I,packages/modules/Connectivity/framework-t/src/android/net/NetworkStats.java,233,5,233,88,maxTargetSdk=30&trackingBug=170729553L
Landroid/net/NetworkStats;->rxBytes:[J,packages/modules/Connectivity/framework-t/src/android/net/NetworkStats.java,235,5,235,25,
Landroid/net/NetworkStats;->rxPackets:[J,packages/modules/Connectivity/framework-t/src/android/net/NetworkStats.java,237,5,237,88,maxTargetSdk=30&trackingBug=170729553L
Landroid/net/NetworkStats;->txBytes:[J,packages/modules/Connectivity/framework-t/src/android/net/NetworkStats.java,239,5,239,25,
Landroid/net/NetworkStats;->txPackets:[J,packages/modules/Connectivity/framework-t/src/android/net/NetworkStats.java,241,5,241,88,maxTargetSdk=30&trackingBug=170729553L
Landroid/net/NetworkStats;->operations:[J,packages/modules/Connectivity/framework-t/src/android/net/NetworkStats.java,243,5,243,88,maxTargetSdk=30&trackingBug=170729553L
Landroid/net/NetworkStats;-><init>(Landroid/os/Parcel;)V,packages/modules/Connectivity/framework-t/src/android/net/NetworkStats.java,558,5,558,88,maxTargetSdk=30&trackingBug=170729553L
Landroid/net/NetworkStats;->getValues(ILandroid/net/NetworkStats$Entry;)Landroid/net/NetworkStats$Entry;,packages/modules/Connectivity/framework-t/src/android/net/NetworkStats.java,735,5,735,25,
Landroid/net/NetworkStats;->size()I,packages/modules/Connectivity/framework-t/src/android/net/NetworkStats.java,793,5,793,25,
Landroid/net/NetworkStats;->getUniqueUids()[I,packages/modules/Connectivity/framework-t/src/android/net/NetworkStats.java,964,5,964,25,
Landroid/net/NetworkStats;->getTotalBytes()J,packages/modules/Connectivity/framework-t/src/android/net/NetworkStats.java,984,5,984,25,
Landroid/net/NetworkStats;->getTotal(Landroid/net/NetworkStats$Entry;)Landroid/net/NetworkStats$Entry;,packages/modules/Connectivity/framework-t/src/android/net/NetworkStats.java,994,5,994,25,
Landroid/net/NetworkStats;->getTotal(Landroid/net/NetworkStats$Entry;I)Landroid/net/NetworkStats$Entry;,packages/modules/Connectivity/framework-t/src/android/net/NetworkStats.java,1004,5,1004,25,
Landroid/net/NetworkStats;->getTotalIncludingTags(Landroid/net/NetworkStats$Entry;)Landroid/net/NetworkStats$Entry;,packages/modules/Connectivity/framework-t/src/android/net/NetworkStats.java,1019,5,1019,25,
Landroid/net/NetworkStatsHistory$Entry;->bucketDuration:J,packages/modules/Connectivity/framework-t/src/android/net/NetworkStatsHistory.java,134,9,134,92,maxTargetSdk=30&trackingBug=170729553L
Landroid/net/NetworkStatsHistory$Entry;->bucketStart:J,packages/modules/Connectivity/framework-t/src/android/net/NetworkStatsHistory.java,137,9,137,92,maxTargetSdk=30&trackingBug=170729553L
Landroid/net/NetworkStatsHistory$Entry;->rxBytes:J,packages/modules/Connectivity/framework-t/src/android/net/NetworkStatsHistory.java,142,9,142,29,
Landroid/net/NetworkStatsHistory$Entry;->rxPackets:J,packages/modules/Connectivity/framework-t/src/android/net/NetworkStatsHistory.java,145,9,145,92,maxTargetSdk=30&trackingBug=170729553L
Landroid/net/NetworkStatsHistory$Entry;->txBytes:J,packages/modules/Connectivity/framework-t/src/android/net/NetworkStatsHistory.java,148,9,148,29,
Landroid/net/NetworkStatsHistory$Entry;->txPackets:J,packages/modules/Connectivity/framework-t/src/android/net/NetworkStatsHistory.java,151,9,151,92,maxTargetSdk=30&trackingBug=170729553L
Landroid/net/NetworkStatsHistory;-><init>(J)V,packages/modules/Connectivity/framework-t/src/android/net/NetworkStatsHistory.java,285,5,285,25,
Landroid/net/NetworkStatsHistory;-><init>(Landroid/os/Parcel;)V,packages/modules/Connectivity/framework-t/src/android/net/NetworkStatsHistory.java,316,5,316,88,maxTargetSdk=30&trackingBug=170729553L
Landroid/net/NetworkStatsHistory;->size()I,packages/modules/Connectivity/framework-t/src/android/net/NetworkStatsHistory.java,405,5,405,88,maxTargetSdk=30&trackingBug=170729553L
Landroid/net/NetworkStatsHistory;->getStart()J,packages/modules/Connectivity/framework-t/src/android/net/NetworkStatsHistory.java,416,5,416,25,
Landroid/net/NetworkStatsHistory;->getEnd()J,packages/modules/Connectivity/framework-t/src/android/net/NetworkStatsHistory.java,426,5,426,25,
Landroid/net/NetworkStatsHistory;->getIndexBefore(J)I,packages/modules/Connectivity/framework-t/src/android/net/NetworkStatsHistory.java,448,5,448,88,maxTargetSdk=30&trackingBug=170729553L
Landroid/net/NetworkStatsHistory;->getValues(ILandroid/net/NetworkStatsHistory$Entry;)Landroid/net/NetworkStatsHistory$Entry;,packages/modules/Connectivity/framework-t/src/android/net/NetworkStatsHistory.java,478,5,478,88,maxTargetSdk=30&trackingBug=170729553L
Landroid/net/NetworkStatsHistory;->recordEntireHistory(Landroid/net/NetworkStatsHistory;)V,packages/modules/Connectivity/framework-t/src/android/net/NetworkStatsHistory.java,605,5,605,25,
Landroid/net/NetworkStatsHistory;->getValues(JJLandroid/net/NetworkStatsHistory$Entry;)Landroid/net/NetworkStatsHistory$Entry;,packages/modules/Connectivity/framework-t/src/android/net/NetworkStatsHistory.java,758,5,758,25,
Landroid/net/NetworkStatsHistory;->getValues(JJJLandroid/net/NetworkStatsHistory$Entry;)Landroid/net/NetworkStatsHistory$Entry;,packages/modules/Connectivity/framework-t/src/android/net/NetworkStatsHistory.java,773,5,773,25,
Landroid/net/NetworkStatsHistory;->CREATOR:Landroid/os/Parcelable$Creator;,packages/modules/Connectivity/framework-t/src/android/net/NetworkStatsHistory.java,1001,5,1001,25,
Landroid/net/NetworkTemplate;->buildTemplateMobileAll(Ljava/lang/String;)Landroid/net/NetworkTemplate;,packages/modules/Connectivity/framework-t/src/android/net/NetworkTemplate.java,212,5,213,65,maxTargetSdk=33&publicAlternatives=%22Use+%7B%40code+Builder%7D+instead.%22
Landroid/net/NetworkTemplate;->buildTemplateMobileWildcard()Landroid/net/NetworkTemplate;,packages/modules/Connectivity/framework-t/src/android/net/NetworkTemplate.java,227,5,227,88,maxTargetSdk=30&trackingBug=170729553L
Landroid/net/NetworkTemplate;->buildTemplateWifiWildcard()Landroid/net/NetworkTemplate;,packages/modules/Connectivity/framework-t/src/android/net/NetworkTemplate.java,240,5,241,65,maxTargetSdk=33&publicAlternatives=%22Use+%7B%40code+Builder%7D+instead.%22
Landroid/net/NetworkTemplate;->buildTemplateWifi()Landroid/net/NetworkTemplate;,packages/modules/Connectivity/framework-t/src/android/net/NetworkTemplate.java,251,5,252,65,maxTargetSdk=33&publicAlternatives=%22Use+%7B%40code+Builder%7D+instead.%22
Landroid/net/NetworkTemplate;->buildTemplateEthernet()Landroid/net/NetworkTemplate;,packages/modules/Connectivity/framework-t/src/android/net/NetworkTemplate.java,265,5,266,65,maxTargetSdk=33&publicAlternatives=%22Use+%7B%40code+Builder%7D+instead.%22
Landroid/net/NetworkTemplate;-><init>(ILjava/lang/String;Ljava/lang/String;)V,packages/modules/Connectivity/framework-t/src/android/net/NetworkTemplate.java,446,5,447,65,maxTargetSdk=33&publicAlternatives=%22Use+%7B%40code+Builder%7D+instead.%22
Landroid/net/NetworkTemplate;->getSubscriberId()Ljava/lang/String;,packages/modules/Connectivity/framework-t/src/android/net/NetworkTemplate.java,649,5,650,88,maxTargetSdk=33&publicAlternatives=%22Caller+should+use+%7B%40code+getSubscriberIds%7D+instead.%22
Landroid/net/NetworkTemplate;->normalize(Landroid/net/NetworkTemplate;[Ljava/lang/String;)Landroid/net/NetworkTemplate;,packages/modules/Connectivity/framework-t/src/android/net/NetworkTemplate.java,940,5,943,74,maxTargetSdk=33&publicAlternatives=%22There+is+no+alternative+for+%7B%40code+NetworkTemplate.normalize%7D.Callers+should+have+their+own+logic+to+merge+template+for+different+IMSIs+and+stop+calling+this+function.%22
Landroid/net/NetworkTemplate;->CREATOR:Landroid/os/Parcelable$Creator;,packages/modules/Connectivity/framework-t/src/android/net/NetworkTemplate.java,1012,5,1012,25,
Landroid/net/NetworkUtils;->intToInetAddress(I)Ljava/net/InetAddress;,packages/modules/Connectivity/framework/src/android/net/NetworkUtils.java,183,5,183,25,
Landroid/net/NetworkUtils;->prefixLengthToNetmaskInt(I)I,packages/modules/Connectivity/framework/src/android/net/NetworkUtils.java,205,5,205,25,
Landroid/net/NetworkUtils;->netmaskToPrefixLength(Ljava/net/Inet4Address;)I,packages/modules/Connectivity/framework/src/android/net/NetworkUtils.java,228,5,228,88,maxTargetSdk=30&trackingBug=170729553L
Landroid/net/NetworkUtils;->numericToInetAddress(Ljava/lang/String;)Ljava/net/InetAddress;,packages/modules/Connectivity/framework/src/android/net/NetworkUtils.java,245,5,245,63,maxTargetSdk=28
Landroid/net/NetworkUtils;->getImplicitNetmask(Ljava/net/Inet4Address;)I,packages/modules/Connectivity/framework/src/android/net/NetworkUtils.java,255,5,255,88,maxTargetSdk=30&trackingBug=170729553L
Landroid/net/NetworkUtils;->trimV4AddrZeros(Ljava/lang/String;)Ljava/lang/String;,packages/modules/Connectivity/framework/src/android/net/NetworkUtils.java,356,5,356,25,
Landroid/net/ProxyInfo;-><init>(Ljava/lang/String;ILjava/lang/String;)V,packages/modules/Connectivity/framework/src/android/net/ProxyInfo.java,110,5,110,25,
Landroid/net/RouteInfo;->mGateway:Ljava/net/InetAddress;,packages/modules/Connectivity/framework/src/android/net/RouteInfo.java,78,5,78,25,
Landroid/net/RouteInfo;->mIsHost:Z,packages/modules/Connectivity/framework/src/android/net/RouteInfo.java,123,5,123,88,maxTargetSdk=28&trackingBug=115609023L
Landroid/net/RouteInfo;-><init>(Landroid/net/IpPrefix;Ljava/net/InetAddress;Ljava/lang/String;)V,packages/modules/Connectivity/framework/src/android/net/RouteInfo.java,247,5,247,88,maxTargetSdk=30&trackingBug=170729553L
Landroid/net/RouteInfo;-><init>(Landroid/net/LinkAddress;Ljava/net/InetAddress;Ljava/lang/String;)V,packages/modules/Connectivity/framework/src/android/net/RouteInfo.java,256,5,256,25,
Landroid/net/RouteInfo;-><init>(Landroid/net/LinkAddress;Ljava/net/InetAddress;)V,packages/modules/Connectivity/framework/src/android/net/RouteInfo.java,288,5,288,25,
Landroid/net/RouteInfo;-><init>(Ljava/net/InetAddress;)V,packages/modules/Connectivity/framework/src/android/net/RouteInfo.java,300,5,300,25,
Landroid/net/RouteInfo;->isHost()Z,packages/modules/Connectivity/framework/src/android/net/RouteInfo.java,352,5,352,88,maxTargetSdk=28&trackingBug=115609023L
Landroid/net/RouteInfo;->selectBestRoute(Ljava/util/Collection;Ljava/net/InetAddress;)Landroid/net/RouteInfo;,packages/modules/Connectivity/framework/src/android/net/RouteInfo.java,513,5,513,88,maxTargetSdk=30&trackingBug=170729553L
Landroid/net/StaticIpConfiguration;->ipAddress:Landroid/net/LinkAddress;,packages/modules/Connectivity/framework/src/android/net/StaticIpConfiguration.java,40,5,40,88,maxTargetSdk=30&trackingBug=170729553L
Landroid/net/StaticIpConfiguration;->gateway:Ljava/net/InetAddress;,packages/modules/Connectivity/framework/src/android/net/StaticIpConfiguration.java,44,5,44,88,maxTargetSdk=30&trackingBug=170729553L
Landroid/net/StaticIpConfiguration;->dnsServers:Ljava/util/ArrayList;,packages/modules/Connectivity/framework/src/android/net/StaticIpConfiguration.java,48,5,48,88,maxTargetSdk=30&trackingBug=170729553L
Landroid/net/StaticIpConfiguration;->domains:Ljava/lang/String;,packages/modules/Connectivity/framework/src/android/net/StaticIpConfiguration.java,52,5,52,88,maxTargetSdk=30&trackingBug=170729553L
Landroid/net/TrafficStats;->getStatsService()Landroid/net/INetworkStatsService;,packages/modules/Connectivity/framework-t/src/android/net/TrafficStats.java,178,5,178,88,maxTargetSdk=28&trackingBug=130143562L
Landroid/net/TrafficStats;->getMobileTcpRxPackets()J,packages/modules/Connectivity/framework-t/src/android/net/TrafficStats.java,684,5,684,88,maxTargetSdk=30&trackingBug=170729553L
Landroid/net/TrafficStats;->getMobileTcpTxPackets()J,packages/modules/Connectivity/framework-t/src/android/net/TrafficStats.java,690,5,690,88,maxTargetSdk=30&trackingBug=170729553L
Landroid/net/TrafficStats;->getMobileIfaces()[Ljava/lang/String;,packages/modules/Connectivity/framework-t/src/android/net/TrafficStats.java,1106,5,1106,88,maxTargetSdk=28&trackingBug=130143562L
Landroid/net/nsd/NsdServiceInfo;->setAttribute(Ljava/lang/String;[B)V,packages/modules/Connectivity/framework-t/src/android/net/nsd/NsdServiceInfo.java,304,5,304,25,
Lcom/android/internal/util/Preconditions;->checkArgument(Z)V,frameworks/libs/modules-utils/java/com/android/internal/util/Preconditions.java,42,5,42,25,
Lcom/android/internal/util/Preconditions;->checkArgument(ZLjava/lang/Object;)V,frameworks/libs/modules-utils/java/com/android/internal/util/Preconditions.java,57,5,57,88,maxTargetSdk=30&trackingBug=170729553L
Lcom/android/internal/util/Preconditions;->checkNotNull(Ljava/lang/Object;)Ljava/lang/Object;,frameworks/libs/modules-utils/java/com/android/internal/util/Preconditions.java,145,5,145,25,
Lcom/android/internal/util/Preconditions;->checkNotNull(Ljava/lang/Object;Ljava/lang/Object;)Ljava/lang/Object;,frameworks/libs/modules-utils/java/com/android/internal/util/Preconditions.java,165,5,165,25,
Lcom/android/internal/util/Preconditions;->checkState(Z)V,frameworks/libs/modules-utils/java/com/android/internal/util/Preconditions.java,199,5,199,25,
Lcom/android/internal/util/Preconditions;->checkState(ZLjava/lang/String;)V,frameworks/libs/modules-utils/java/com/android/internal/util/Preconditions.java,213,5,213,88,maxTargetSdk=30&trackingBug=170729553L
Lcom/android/internal/util/Preconditions;->checkArgumentInRange(IIILjava/lang/String;)I,frameworks/libs/modules-utils/java/com/android/internal/util/Preconditions.java,523,5,523,88,maxTargetSdk=30&trackingBug=170729553L
